\select@language {russian}
\contentsline {section}{\numberline {1}\IeC {\CYRV }\IeC {\cyrv }\IeC {\cyre }\IeC {\cyrd }\IeC {\cyre }\IeC {\cyrn }\IeC {\cyri }\IeC {\cyre }}{4}
\contentsline {section}{\numberline {2}\IeC {\CYRS }\IeC {\cyrh }\IeC {\cyre }\IeC {\cyrm }\IeC {\cyra } \IeC {\cyrb }\IeC {\cyra }\IeC {\cyrz }\IeC {\cyrery } \IeC {\cyrd }\IeC {\cyra }\IeC {\cyrn }\IeC {\cyrn }\IeC {\cyrery }\IeC {\cyrh }}{5}
\contentsline {subsection}{\numberline {2.1}\IeC {\CYRO }\IeC {\cyrp }\IeC {\cyri }\IeC {\cyrs }\IeC {\cyra }\IeC {\cyrn }\IeC {\cyri }\IeC {\cyre } \IeC {\cyrt }\IeC {\cyra }\IeC {\cyrb }\IeC {\cyrl }\IeC {\cyri }\IeC {\cyrc }}{5}
\contentsline {subsection}{\numberline {2.2}\IeC {\CYRO }\IeC {\cyrs }\IeC {\cyro }\IeC {\cyrb }\IeC {\cyre }\IeC {\cyrn }\IeC {\cyrn }\IeC {\cyro }\IeC {\cyrs }\IeC {\cyrt }\IeC {\cyri } \IeC {\cyrp }\IeC {\cyro }\IeC {\cyrs }\IeC {\cyrt }\IeC {\cyro }\IeC {\cyrr }\IeC {\cyro }\IeC {\cyre }\IeC {\cyrn }\IeC {\cyri }\IeC {\cyrya }}{5}
\contentsline {section}{\numberline {3}SQL \IeC {\cyrz }\IeC {\cyra }\IeC {\cyrp }\IeC {\cyrr }\IeC {\cyro }\IeC {\cyrs }\IeC {\cyrery }}{7}
\contentsline {subsection}{\numberline {3.1}\IeC {\CYRS }\IeC {\cyrk }\IeC {\cyrr }\IeC {\cyri }\IeC {\cyrp }\IeC {\cyrt } \IeC {\cyrs }\IeC {\cyro }\IeC {\cyrz }\IeC {\cyrd }\IeC {\cyra }\IeC {\cyrn }\IeC {\cyri }\IeC {\cyrya } \IeC {\cyrt }\IeC {\cyra }\IeC {\cyrb }\IeC {\cyrl }\IeC {\cyri }\IeC {\cyrc }}{7}
\contentsline {subsection}{\numberline {3.2}\IeC {\CYRP }\IeC {\cyro }\IeC {\cyrl }\IeC {\cyru }\IeC {\cyrch }\IeC {\cyre }\IeC {\cyrn }\IeC {\cyri }\IeC {\cyre } \IeC {\cyri }\IeC {\cyrn }\IeC {\cyrf }\IeC {\cyro }\IeC {\cyrr }\IeC {\cyrm }\IeC {\cyra }\IeC {\cyrc }\IeC {\cyri }\IeC {\cyri } \IeC {\cyro } \IeC {\cyrv }\IeC {\cyrs }\IeC {\cyre }\IeC {\cyrh } \IeC {\cyrm }\IeC {\cyro }\IeC {\cyrd }\IeC {\cyre }\IeC {\cyrl }\IeC {\cyrya }\IeC {\cyrh }}{8}
\contentsline {subsection}{\numberline {3.3}\IeC {\CYRN }\IeC {\cyra }\IeC {\cyrh }\IeC {\cyro }\IeC {\cyrzh }\IeC {\cyrd }\IeC {\cyre }\IeC {\cyrn }\IeC {\cyri }\IeC {\cyre } \IeC {\cyrk }\IeC {\cyro }\IeC {\cyrl }\IeC {\cyri }\IeC {\cyrch }\IeC {\cyre }\IeC {\cyrs }\IeC {\cyrt }\IeC {\cyrv }\IeC {\cyra } \IeC {\cyrt }\IeC {\cyre }\IeC {\cyrl }\IeC {\cyre }\IeC {\cyrf }\IeC {\cyro }\IeC {\cyrn }\IeC {\cyro }\IeC {\cyrv } \IeC {\cyrv } \IeC {\cyrb }\IeC {\cyra }\IeC {\cyrz }\IeC {\cyre } \IeC {\cyrp }\IeC {\cyro } \IeC {\cyrk }\IeC {\cyra }\IeC {\cyrzh }\IeC {\cyrd }\IeC {\cyro }\IeC {\cyrm }\IeC {\cyru } \IeC {\cyrp }\IeC {\cyrr }\IeC {\cyro }\IeC {\cyri }\IeC {\cyrz }\IeC {\cyrv }\IeC {\cyro }\IeC {\cyrd }\IeC {\cyri }\IeC {\cyrt }\IeC {\cyre }\IeC {\cyrl }\IeC {\cyryu }}{8}
\contentsline {subsection}{\numberline {3.4}\IeC {\CYRP }\IeC {\cyro }\IeC {\cyrl }\IeC {\cyru }\IeC {\cyrch }\IeC {\cyre }\IeC {\cyrn }\IeC {\cyri }\IeC {\cyre } \IeC {\cyrl }\IeC {\cyro }\IeC {\cyrg }\IeC {\cyri }\IeC {\cyrn }\IeC {\cyro }\IeC {\cyrv } \IeC {\cyrp }\IeC {\cyro }\IeC {\cyrl }\IeC {\cyrsftsn }\IeC {\cyrz }\IeC {\cyro }\IeC {\cyrv }\IeC {\cyra }\IeC {\cyrt }\IeC {\cyre }\IeC {\cyrl }\IeC {\cyre }\IeC {\cyrishrt }, \IeC {\cyrk }\IeC {\cyro }\IeC {\cyrt }\IeC {\cyro }\IeC {\cyrr }\IeC {\cyrery }\IeC {\cyre } \IeC {\cyrk }\IeC {\cyru }\IeC {\cyrp }\IeC {\cyri }\IeC {\cyrl }\IeC {\cyri } \IeC {\cyrt }\IeC {\cyre }\IeC {\cyrl }\IeC {\cyre }\IeC {\cyrf }\IeC {\cyro }\IeC {\cyrn } \IeC {\cyrs } Id = 103}{8}
\contentsline {subsection}{\numberline {3.5}\IeC {\CYRN }\IeC {\cyra }\IeC {\cyrh }\IeC {\cyro }\IeC {\cyrzh }\IeC {\cyrd }\IeC {\cyre }\IeC {\cyrn }\IeC {\cyri }\IeC {\cyre } \IeC {\cyrk }\IeC {\cyro }\IeC {\cyrl }\IeC {\cyri }\IeC {\cyrch }\IeC {\cyre }\IeC {\cyrs }\IeC {\cyrt }\IeC {\cyrv }\IeC {\cyra } \IeC {\cyrt }\IeC {\cyre }\IeC {\cyrl }\IeC {\cyre }\IeC {\cyrf }\IeC {\cyro }\IeC {\cyrn }\IeC {\cyro }\IeC {\cyrv } \IeC {\cyrs } \IeC {\cyrch }\IeC {\cyri }\IeC {\cyrp }\IeC {\cyra }\IeC {\cyrm }\IeC {\cyri } \IeC {\cyrp }\IeC {\cyro } \IeC {\cyrk }\IeC {\cyra }\IeC {\cyrzh }\IeC {\cyrd }\IeC {\cyro }\IeC {\cyrm }\IeC {\cyru } \IeC {\cyrp }\IeC {\cyrr }\IeC {\cyro }\IeC {\cyri }\IeC {\cyrz }\IeC {\cyrv }\IeC {\cyro }\IeC {\cyrd }\IeC {\cyri }\IeC {\cyrt }\IeC {\cyre }\IeC {\cyrl }\IeC {\cyryu }}{9}
\contentsline {subsection}{\numberline {3.6}\IeC {\CYRD }\IeC {\cyro }\IeC {\cyrb }\IeC {\cyra }\IeC {\cyrv }\IeC {\cyrl }\IeC {\cyre }\IeC {\cyrn }\IeC {\cyri }\IeC {\cyre } \IeC {\cyrn }\IeC {\cyro }\IeC {\cyrv }\IeC {\cyro }\IeC {\cyrg }\IeC {\cyro } \IeC {\cyrp }\IeC {\cyro }\IeC {\cyrl }\IeC {\cyrsftsn }\IeC {\cyrz }\IeC {\cyro }\IeC {\cyrv }\IeC {\cyra }\IeC {\cyrt }\IeC {\cyre }\IeC {\cyrl }\IeC {\cyrya } \IeC {\cyrp }\IeC {\cyrr }\IeC {\cyri } \IeC {\cyrr }\IeC {\cyre }\IeC {\cyrg }\IeC {\cyri }\IeC {\cyrs }\IeC {\cyrt }\IeC {\cyrr }\IeC {\cyra }\IeC {\cyrc }\IeC {\cyri }\IeC {\cyri }}{10}
\contentsline {subsection}{\numberline {3.7}\IeC {\CYRZ }\IeC {\cyra }\IeC {\cyrp }\IeC {\cyrr }\IeC {\cyro }\IeC {\cyrs } \IeC {\cyrp }\IeC {\cyrr }\IeC {\cyri } \IeC {\cyrv }\IeC {\cyra }\IeC {\cyrl }\IeC {\cyri }\IeC {\cyrd }\IeC {\cyra }\IeC {\cyrc }\IeC {\cyri }\IeC {\cyri } \IeC {\cyrp }\IeC {\cyro }\IeC {\cyrl }\IeC {\cyrsftsn }\IeC {\cyrz }\IeC {\cyro }\IeC {\cyrv }\IeC {\cyra }\IeC {\cyrt }\IeC {\cyre }\IeC {\cyrl }\IeC {\cyrya } \IeC {\cyrp }\IeC {\cyrr }\IeC {\cyri } \IeC {\cyrv }\IeC {\cyrh }\IeC {\cyro }\IeC {\cyrd }\IeC {\cyre }}{10}
\contentsline {subsection}{\numberline {3.8}\IeC {\CYRZ }\IeC {\cyra }\IeC {\cyrp }\IeC {\cyrr }\IeC {\cyro }\IeC {\cyrs }, \IeC {\cyrf }\IeC {\cyro }\IeC {\cyrr }\IeC {\cyrm }\IeC {\cyri }\IeC {\cyrr }\IeC {\cyru }\IeC {\cyre }\IeC {\cyrm }\IeC {\cyrery }\IeC {\cyrishrt } \IeC {\cyrk }\IeC {\cyrl }\IeC {\cyra }\IeC {\cyrs }\IeC {\cyrs }\IeC {\cyro }\IeC {\cyrm } \IeC {\cyro }\IeC {\cyrk }\IeC {\cyrn }\IeC {\cyra } \IeC {\cyrp }\IeC {\cyro }\IeC {\cyrl }\IeC {\cyrsftsn }\IeC {\cyrz }\IeC {\cyro }\IeC {\cyrv }\IeC {\cyra }\IeC {\cyrt }\IeC {\cyre }\IeC {\cyrl }\IeC {\cyrya } \IeC {\cyrp }\IeC {\cyrr }\IeC {\cyri } \IeC {\cyro }\IeC {\cyrb }\IeC {\cyrn }\IeC {\cyro }\IeC {\cyrv }\IeC {\cyrl }\IeC {\cyre }\IeC {\cyrn }\IeC {\cyri }\IeC {\cyri }}{10}
\contentsline {section}{\numberline {4}\IeC {\CYRO }\IeC {\cyrp }\IeC {\cyri }\IeC {\cyrs }\IeC {\cyra }\IeC {\cyrn }\IeC {\cyri }\IeC {\cyre } \IeC {\cyrk }\IeC {\cyrl }\IeC {\cyri }\IeC {\cyre }\IeC {\cyrn }\IeC {\cyrt }\IeC {\cyrs }\IeC {\cyrk }\IeC {\cyro }\IeC {\cyrishrt } \IeC {\cyrch }\IeC {\cyra }\IeC {\cyrs }\IeC {\cyrt }\IeC {\cyri }}{11}
\contentsline {subsection}{\numberline {4.1}\IeC {\CYRS }\IeC {\cyrk }\IeC {\cyrr }\IeC {\cyri }\IeC {\cyrn }\IeC {\cyrsh }\IeC {\cyro }\IeC {\cyrt }\IeC {\cyrery } \IeC {\cyro }\IeC {\cyrk }\IeC {\cyro }\IeC {\cyrn }}{12}
\contentsline {section}{\IeC {\CYRP }\IeC {\cyrr }\IeC {\cyri }\IeC {\cyrl }\IeC {\cyro }\IeC {\cyrzh }\IeC {\cyre }\IeC {\cyrn }\IeC {\cyri }\IeC {\cyrya }}{14}
\contentsline {subsection}{\IeC {\CYRS }\IeC {\cyrk }\IeC {\cyrr }\IeC {\cyri }\IeC {\cyrp }\IeC {\cyrt } \IeC {\cyra }\IeC {\cyrv }\IeC {\cyrt }\IeC {\cyro }\IeC {\cyrz }\IeC {\cyra }\IeC {\cyrp }\IeC {\cyro }\IeC {\cyrn }\IeC {\cyre }\IeC {\cyrn }\IeC {\cyri }\IeC {\cyrya }}{14}
\contentsline {section}{\IeC {\CYRS }\IeC {\cyrp }\IeC {\cyri }\IeC {\cyrs }\IeC {\cyro }\IeC {\cyrk } \IeC {\cyrl }\IeC {\cyri }\IeC {\cyrt }\IeC {\cyre }\IeC {\cyrr }\IeC {\cyra }\IeC {\cyrt }\IeC {\cyru }\IeC {\cyrr }\IeC {\cyrery }}{16}
